<svg width="32" height="33" viewBox="0 0 32 33" fill="none" xmlns="http://www.w3.org/2000/svg">
<path d="M12.8079 3.30033C10.2602 3.30033 7.81693 4.34406 6.01547 6.20192C4.21402 8.05978 3.20197 10.5796 3.20197 13.207C3.20197 15.8344 4.21402 18.3542 6.01547 20.212C7.81693 22.0699 10.2602 23.1136 12.8079 23.1136C15.3555 23.1136 17.7988 22.0699 19.6003 20.212C21.4017 18.3542 22.4138 15.8344 22.4138 13.207C22.4138 10.5796 21.4017 8.05978 19.6003 6.20192C17.7988 4.34406 15.3555 3.30033 12.8079 3.30033ZM7.91146e-08 13.207C0.000291901 11.1049 0.487048 9.03322 1.41982 7.16416C2.35258 5.29509 3.70442 3.68261 5.36298 2.46071C7.02154 1.23882 8.93893 0.44281 10.9558 0.138836C12.9726 -0.165139 15.0307 0.0317027 16.959 0.713001C18.8872 1.3943 20.63 2.54038 22.0423 4.05599C23.4547 5.5716 24.496 7.41297 25.0796 9.42706C25.6631 11.4412 25.7722 13.5698 25.3976 15.6361C25.0231 17.7024 24.1758 19.6467 22.9261 21.3073L31.5506 30.2018C31.8422 30.5132 32.0036 30.9303 31.9999 31.3632C31.9963 31.7962 31.8279 32.2103 31.5311 32.5164C31.2342 32.8225 30.8327 32.9962 30.4129 32.9999C29.9932 33.0037 29.5887 32.8373 29.2868 32.5365L20.6623 23.642C18.7691 25.1579 16.5014 26.0955 14.1171 26.3481C11.7328 26.6008 9.32764 26.1584 7.17504 25.0713C5.02245 23.9842 3.20884 22.296 1.94043 20.1986C0.672027 18.1012 -0.000266276 15.6789 7.91146e-08 13.207Z" fill="white"/>
</svg>
